Análise de dados - Abordagem como Fatorial duplo com tratamento adicional em DBC
…
AACPD

Ajuste dos dados

Como na parcela foi avaliada 3 folhas por planta de 3 plantas, tem-se 9 valores por observação. Nesse caso, antes de prosseguir, vamos resumir esses valores em um único valor de severidade média. Dessa forma, reduzindo nosso banco de dados de 336 linhas para 112. Isso representa, 7 tratamentos, 4 blocos e 4 momentos de avaliação.

dados2 <- dados2 |> 
  mutate(sev.med = rowMeans(across(starts_with('sev_f')))) |> 
  dplyr::select(- c(9, 10, 11)) |> 
  group_by(treat, block, assessment) |> 
  summarise(sev.med = mean(sev.med))
  
dados2

# A tibble: 112 × 4
# Groups:   treat, block [28]
   treat     block assessment sev.med
   <chr>     <dbl>      <dbl>   <dbl>
 1 FOX V6/V8     1          1  0.0444
 2 FOX V6/V8     1          2  0.167 
 3 FOX V6/V8     1          3  1.84  
 4 FOX V6/V8     1          4  7.24  
 5 FOX V6/V8     2          1  0.0222
 6 FOX V6/V8     2          2  0.111 
 7 FOX V6/V8     2          3  2.13  
 8 FOX V6/V8     2          4  1.7   
 9 FOX V6/V8     3          1  0.0556
10 FOX V6/V8     3          2  0.0556
# ℹ 102 more rows
Como nosso banco de dados (dados2), contêm os valores médios de severidade de cada tratamento, cada bloco e cada tempo de avaliação, é possível, utilizando a função AUDPC() do pacote EPIFITTER, calcular a área abaixo da curva de progresso da doença (AACPD).

aacpd1 <- dados2 |> 
  group_by(treat, block) |> 
  summarise(aacpd = AUDPC(assessment, sev.med))

aacpd <- aacpd1 |> 
  separate(col = treat, into = c('Fator1', 'Fator2'), sep = ' ')

aacpd2 <- aacpd |> 
 mutate(Fator2= ifelse(Fator1 == 'TESTEMUNHA', 0, Fator2))

aacpd2

# A tibble: 28 × 4
   Fator1 Fator2   block aacpd
   <chr>  <chr>    <dbl> <dbl>
 1 FOX    V6/V8        1  5.66
 2 FOX    V6/V8        2  3.11
 3 FOX    V6/V8        3  2.59
 4 FOX    V6/V8        4  2.82
 5 FOX    V6/V8+VT     1  1.83
 6 FOX    V6/V8+VT     2  2.23
 7 FOX    V6/V8+VT     3  2.82
 8 FOX    V6/V8+VT     4  3.32
 9 FOX    VT           1  3.36
10 FOX    VT           2  3.2 
# ℹ 18 more rows
…
